{
  "bills": [
    {
      "congress": 117,
      "latestAction": {
        "actionDate": "2022-09-06",
        "text": "Passed Senate with an amendment by Unanimous Consent. (consideration: CR S4444; text: CR S4444)"
      },
      "number": "958",
      "originChamber": "Senate",
      "originChamberCode": "S",
      "title": "Maximizing Outcomes through Better Investments in Lifesaving Equipment for (MOBILE) Health Care Act",
      "type": "S",
      "updateDate": "2022-09-08",
      "updateDateIncludingText": "2022-09-08T01:02:00Z",
      "url": "https://api.congress.gov/v3/bill/117/s/958?format=json"
    },
    {
      "congress": 117,
      "latestAction": {
        "actionDate": "2022-09-06",
        "text": "Passed Senate with an amendment by Unanimous Consent. (consideration: CR S4443-4444; text: CR S4443)"
      },
      "number": "3662",
      "originChamber": "Senate",
      "originChamberCode": "S",
      "title": "Preventing PFAS Runoff at Airports Act",
      "type": "S",
      "updateDate": "2022-09-08",
      "updateDateIncludingText": "2022-09-08T01:01:59Z",
      "url": "https://api.congress.gov/v3/bill/117/s/3662?format=json"
    },
    {
      "congress": 117,
      "latestAction": {
        "actionDate": "2022-09-06",
        "text": "Introduced in the Senate, read twice, considered, read the third time, and passed without amendment by Unanimous Consent. (consideration: CR S4443; text: CR S4443)"
      },
      "number": "4791",
      "originChamber": "Senate",
      "originChamberCode": "S",
      "title": "A bill to amend section 301 of title 44, United States Code, to establish a term for the appointment of the Director of the Government Publishing Office.",
      "type": "S",
      "updateDate": "2022-09-08",
      "updateDateIncludingText": "2022-09-08T01:01:59Z",
      "url": "https://api.congress.gov/v3/bill/117/s/4791?format=json"
    },
    {
      "congress": 117,
      "latestAction": {
        "actionDate": "2022-09-06",
        "text": "Read twice and referred to the Committee on Health, Education, Labor, and Pensions."
      },
      "number": "4790",
      "originChamber": "Senate",
      "originChamberCode": "S",
      "title": "Patient Navigator Enhancement Act",
      "type": "S",
      "updateDate": "2022-09-08",
      "updateDateIncludingText": "2022-09-08T01:01:59Z",
      "url": "https://api.congress.gov/v3/bill/117/s/4790?format=json"
    },
    {
      "congress": 117,
      "latestAction": {
        "actionDate": "2022-09-06",
        "text": "Referred to the Committee on Health, Education, Labor, and Pensions. (text: CR S4443)"
      },
      "number": "752",
      "originChamber": "Senate",
      "originChamberCode": "S",
      "title": "A resolution commemorating the 48th anniversary of the signing into law of the Employee Retirement Income Security Act of 1974, recognizing the importance the Employee Retirement Income Security Act of 1974 plays in protecting the interests of participants in employee benefit plans and their beneficiaries, and recognizing the need to encourage more workers to participate in such plans to save for their retirement.",
      "type": "SRES",
      "updateDate": "2022-09-08",
      "updateDateIncludingText": "2022-09-08T01:01:59Z",
      "url": "https://api.congress.gov/v3/bill/117/sres/752?format=json"
    },
    {
      "congress": 117,
      "latestAction": {
        "actionDate": "2022-09-06",
        "text": "Read twice and referred to the Committee on Banking, Housing, and Urban Affairs."
      },
      "number": "4789",
      "originChamber": "Senate",
      "originChamberCode": "S",
      "title": "A bill to establish a competitive grant program at the Department of Housing and Urban Development to support the construction, preservation, or rehabilitation of affordable workforce housing in areas with shortages of affordable housing units for sale, and for other purposes.",
      "type": "S",
      "updateDate": "2022-09-07",
      "updateDateIncludingText": "2022-09-07T04:31:30Z",
      "url": "https://api.congress.gov/v3/bill/117/s/4789?format=json"
    },
    {
      "congress": 117,
      "latestAction": {
        "actionDate": "2022-09-06",
        "text": "Read twice and referred to the Committee on Commerce, Science, and Transportation."
      },
      "number": "4788",
      "originChamber": "Senate",
      "originChamberCode": "S",
      "title": "Go Pack Go Act of 2022",
      "type": "S",
      "updateDate": "2022-09-08",
      "updateDateIncludingText": "2022-09-08T01:01:59Z",
      "url": "https://api.congress.gov/v3/bill/117/s/4788?format=json"
    },
    {
      "congress": 117,
      "latestAction": {
        "actionDate": "2022-09-06",
        "text": "Referred to the Committee on the Judiciary. (text: CR S4442)"
      },
      "number": "751",
      "originChamber": "Senate",
      "originChamberCode": "S",
      "title": "A resolution designating August 1, 2022, as \"Gold Star Children's Day\".",
      "type": "SRES",
      "updateDate": "2022-09-08",
      "updateDateIncludingText": "2022-09-08T01:01:59Z",
      "url": "https://api.congress.gov/v3/bill/117/sres/751?format=json"
    },
    {
      "congress": 117,
      "latestAction": {
        "actionDate": "2022-09-06",
        "text": "Referred to the Subcommittee on Railroads, Pipelines, and Hazardous Materials."
      },
      "number": "8766",
      "originChamber": "House",
      "originChamberCode": "H",
      "title": "REFINE Act",
      "type": "HR",
      "updateDate": "2022-09-07",
      "updateDateIncludingText": "2022-09-07T13:33:52Z",
      "url": "https://api.congress.gov/v3/bill/117/hr/8766?format=json"
    },
    {
      "congress": 117,
      "latestAction": {
        "actionDate": "2022-09-06",
        "text": "Referred to the Committee on House Administration, and in addition to the Committees on Rules, and Transportation and Infrastructure, for a period to be subsequently determined by the Speaker, in each case for consideration of such provisions as fall within the jurisdiction of the committee concerned."
      },
      "number": "1331",
      "originChamber": "House",
      "originChamberCode": "H",
      "title": "Moving Our Democracy and Congressional Operations Towards Modernization Resolution of 2022",
      "type": "HRES",
      "updateDate": "2022-09-08",
      "updateDateIncludingText": "2022-09-08T01:02:00Z",
      "url": "https://api.congress.gov/v3/bill/117/hres/1331?format=json"
    },
    {
      "congress": 117,
      "latestAction": {
        "actionDate": "2022-09-06",
        "text": "Referred to the House Committee on Transportation and Infrastructure."
      },
      "number": "8771",
      "originChamber": "House",
      "originChamberCode": "H",
      "title": "Options for Ownership Act",
      "type": "HR",
      "updateDate": "2022-09-08",
      "updateDateIncludingText": "2022-09-08T01:02:00Z",
      "url": "https://api.congress.gov/v3/bill/117/hr/8771?format=json"
    },
    {
      "congress": 117,
      "latestAction": {
        "actionDate": "2022-09-06",
        "text": "Referred to the House Committee on Energy and Commerce."
      },
      "number": "8776",
      "originChamber": "House",
      "originChamberCode": "H",
      "title": "No Federal Funds for Abortion Travel Expenses Act of 2022",
      "type": "HR",
      "updateDate": "2022-09-08",
      "updateDateIncludingText": "2022-09-08T01:02:00Z",
      "url": "https://api.congress.gov/v3/bill/117/hr/8776?format=json"
    },
    {
      "congress": 117,
      "latestAction": {
        "actionDate": "2022-09-06",
        "text": "Referred to the House Committee on Energy and Commerce."
      },
      "number": "8773",
      "originChamber": "House",
      "originChamberCode": "H",
      "title": "Revoking Engine and Vehicle Requirements Act of 2022",
      "type": "HR",
      "updateDate": "2022-09-08",
      "updateDateIncludingText": "2022-09-08T01:02:00Z",
      "url": "https://api.congress.gov/v3/bill/117/hr/8773?format=json"
    },
    {
      "congress": 117,
      "latestAction": {
        "actionDate": "2022-09-06",
        "text": "Referred to the Committee on Energy and Commerce, and in addition to the Committees on Armed Services, and Oversight and Reform, for a period to be subsequently determined by the Speaker, in each case for consideration of such provisions as fall within the jurisdiction of the committee concerned."
      },
      "number": "8772",
      "originChamber": "House",
      "originChamberCode": "H",
      "title": "Block the Tok Act",
      "type": "HR",
      "updateDate": "2022-09-08",
      "updateDateIncludingText": "2022-09-08T01:02:00Z",
      "url": "https://api.congress.gov/v3/bill/117/hr/8772?format=json"
    },
    {
      "congress": 117,
      "latestAction": {
        "actionDate": "2022-09-06",
        "text": "Referred to the House Committee on Financial Services."
      },
      "number": "8778",
      "originChamber": "House",
      "originChamberCode": "H",
      "title": "Home Internet Accessibility Act",
      "type": "HR",
      "updateDate": "2022-09-08",
      "updateDateIncludingText": "2022-09-08T01:01:59Z",
      "url": "https://api.congress.gov/v3/bill/117/hr/8778?format=json"
    },
    {
      "congress": 117,
      "latestAction": {
        "actionDate": "2022-09-06",
        "text": "Referred to the Committee on Rules, and in addition to the Committee on the Budget, for a period to be subsequently determined by the Speaker, in each case for consideration of such provisions as fall within the jurisdiction of the committee concerned."
      },
      "number": "8775",
      "originChamber": "House",
      "originChamberCode": "H",
      "title": "BASIC Act",
      "type": "HR",
      "updateDate": "2022-09-08",
      "updateDateIncludingText": "2022-09-08T01:02:00Z",
      "url": "https://api.congress.gov/v3/bill/117/hr/8775?format=json"
    },
    {
      "congress": 117,
      "latestAction": {
        "actionDate": "2022-09-06",
        "text": "Referred to the House Committee on the Judiciary."
      },
      "number": "8777",
      "originChamber": "House",
      "originChamberCode": "H",
      "title": "Competitive Prices Act",
      "type": "HR",
      "updateDate": "2022-09-08",
      "updateDateIncludingText": "2022-09-08T01:02:00Z",
      "url": "https://api.congress.gov/v3/bill/117/hr/8777?format=json"
    },
    {
      "congress": 117,
      "latestAction": {
        "actionDate": "2022-09-06",
        "text": "Referred to the House Committee on Oversight and Reform."
      },
      "number": "1332",
      "originChamber": "House",
      "originChamberCode": "H",
      "title": "Expressing support for the designation of September 2022 as National Campus Sexual Assault Awareness Month.",
      "type": "HRES",
      "updateDate": "2022-09-08",
      "updateDateIncludingText": "2022-09-08T01:02:00Z",
      "url": "https://api.congress.gov/v3/bill/117/hres/1332?format=json"
    },
    {
      "congress": 117,
      "latestAction": {
        "actionDate": "2022-09-06",
        "text": "Referred to the House Committee on Energy and Commerce."
      },
      "number": "8774",
      "originChamber": "House",
      "originChamberCode": "H",
      "title": "Menopause Research Act of 2022",
      "type": "HR",
      "updateDate": "2022-09-08",
      "updateDateIncludingText": "2022-09-08T01:02:00Z",
      "url": "https://api.congress.gov/v3/bill/117/hr/8774?format=json"
    },
    {
      "congress": 117,
      "latestAction": {
        "actionDate": "2022-09-02",
        "text": "Placed on the Union Calendar, Calendar No. 352."
      },
      "number": "302",
      "originChamber": "House",
      "originChamberCode": "H",
      "title": "PPSA Act of 2021",
      "type": "HR",
      "updateDate": "2022-09-07",
      "updateDateIncludingText": "2022-09-07T16:26:13Z",
      "url": "https://api.congress.gov/v3/bill/117/hr/302?format=json"
    }
  ],
  "pagination": {
    "count": 398155,
    "next": "https://api.data.gov/congress/v3/bill?offset=20&limit=20&format=json"
  },
  "request": {
    "contentType": "application/json",
    "format": "json"
  }
}
